Bias-estimation demo
…
Experiment where samples contain different taxa

Next, consider a case where different samples have different taxa, by removing ~2/3 of taxa randomly from the first experiment and recomputing the observed compositions,

exp2 <- exp1 %>%
    mutate(
        Actual = Actual * rbernoulli(n(), p = 0.66),
        Observed = Actual * Bias * Noise
    )
exp2
#> # A tibble: 50 x 6
#>    Sample Taxon   Bias Actual Noise Observed
#>    <chr>  <chr>  <dbl>  <dbl> <dbl>    <dbl>
#>  1 S1     T1     0.221   0    1.29     0    
#>  2 S1     T2     1.11    1.83 0.828    1.69 
#>  3 S1     T3     0.145   0    1.36     0    
#>  4 S1     T4    18.8     1.25 1.07    25.1  
#>  5 S1     T5     1.49    0    0.645    0    
#>  6 S10    T1     0.221   1.34 0.946    0.280
#>  7 S10    T2     1.11    0    0.454    0    
#>  8 S10    T3     0.145   0    1.63     0    
#>  9 S10    T4    18.8     1.07 2.15    43.1  
#> 10 S10    T5     1.49    0    0.664    0    
#> #  with 40 more rows
…
Now suppose the first 5 samples have the first 3 taxa, and the last 5 samples have the last 2 taxa:

exp3 <- exp1 %>%
    mutate(
        Actual = case_when(
            Sample <= "S5" & Taxon <= "T3" ~ Actual,
            Sample <= "S5" & Taxon > "T3" ~ 0,
            Sample > "S5" & Taxon <= "T3" ~ 0,
            Sample > "S5" & Taxon > "T3" ~ Actual,
        ),
        Observed = Actual * Bias * Noise
    )
exp3
#> # A tibble: 50 x 6
#>    Sample Taxon   Bias Actual Noise Observed
#>    <chr>  <chr>  <dbl>  <dbl> <dbl>    <dbl>
#>  1 S1     T1     0.221  2.07  1.29    0.588 
#>  2 S1     T2     1.11   1.83  0.828   1.69  
#>  3 S1     T3     0.145  0.381 1.36    0.0753
#>  4 S1     T4    18.8    0     1.07    0     
#>  5 S1     T5     1.49   0     0.645   0     
#>  6 S10    T1     0.221  1.34  0.946   0.280 
#>  7 S10    T2     1.11   0.206 0.454   0.104 
#>  8 S10    T3     0.145  1.95  1.63    0.462 
#>  9 S10    T4    18.8    0     2.15    0     
#> 10 S10    T5     1.49   0     0.664   0     
#> #  with 40 more rows
…
