Costea2017 analysis
…
Data setup

Sample metadata:

data("costea2017_sample_data")
sam <- costea2017_sample_data
sam

## # A tibble: 29 x 5
##    Sample Protocol Individual SI_sample Run_accession
##    <chr>  <chr>    <chr>      <chr>     <chr>        
##  1 Q1     Q        1          BYQ_AAAB  ERR1971004   
##  2 H1     H        1          BYQ_AAAM  ERR1971015   
##  3 W1     W        1          BYQ_AAAV  ERR1971024   
##  4 Q2     Q        2          BYQ_AAAF  ERR1971008   
##  5 H2     H        2          BYQ_AAAQ  ERR1971019   
##  6 W2     W        2          BYQ_AAAZ  ERR1971028   
##  7 Q3     Q        3          BYQ_AAAA  ERR1971003   
##  8 H3     H        3          BYQ_AAAL  ERR1971014   
##  9 W3     W        3          BYQ_AAAU  ERR1971023   
## 10 Q4     Q        4          BYQ_AAAE  ERR1971007   
## #  with 19 more rows
…
Taxonomy from the metaphlan2 clade names:

tax_ranks <- c("Kingdom", "Phylum", "Class", "Order", "Family", "Genus",
    "Species", "Strain")
rank_letters <- c("k", "p", "c", "o", "f", "g", "s", "t")
tax_pattern  <- paste0("(?:", rank_letters, "__(\\w+))?") %>%
    paste(collapse = "\\|?")
tax <- profiles %>%
    select(Clade) %>%
    extract(Clade, tax_ranks, regex = tax_pattern, remove = FALSE)
tax

## # A tibble: 699 x 9
##    Clade      Kingdom Phylum  Class  Order  Family  Genus Species  Strain  
##    <chr>      <chr>   <chr>   <chr>  <chr>  <chr>   <chr> <chr>    <chr>   
##  1 k__Archaea Archaea <NA>    <NA>   <NA>   <NA>    <NA>  <NA>     <NA>    
##  2 k__Archae Archaea Euryar <NA>   <NA>   <NA>    <NA>  <NA>     <NA>    
##  3 k__Archae Archaea Euryar Metha <NA>   <NA>    <NA>  <NA>     <NA>    
##  4 k__Archae Archaea Euryar Metha Metha <NA>    <NA>  <NA>     <NA>    
##  5 k__Archae Archaea Euryar Metha Metha Methan <NA>  <NA>     <NA>    
##  6 k__Archae Archaea Euryar Metha Metha Methan Meth <NA>     <NA>    
##  7 k__Archae Archaea Euryar Metha Metha Methan Meth Methano <NA>    
##  8 k__Archae Archaea Euryar Metha Metha Methan Meth Methano Methano
##  9 k__Archae Archaea Euryar Metha Metha Methan Meth Methano <NA>    
## 10 k__Archae Archaea Euryar Metha Metha Methan Meth <NA>     <NA>    
## #  with 689 more rows

Species table:

st <- profiles %>%
    left_join(tax, by = "Clade") %>%
    filter(!is.na(Species), is.na(Strain)) %>%
    select(-Strain)
st

## # A tibble: 260 x 35
##    Clade      Q1     H1     W1      Q2     H2    W2      Q3      H3      W3
##    <chr>   <dbl>  <dbl>  <dbl>   <dbl>  <dbl> <dbl>   <dbl>   <dbl>   <dbl>
##  1 k__A 0       0      0      8.64e-2 0.0956 0.654 0       0.      0      
##  2 k__A 0       0      0      1.82e-2 0      0     0       0.      0      
##  3 k__A 0       0      0      0.      0      0     0       0.      0      
##  4 k__B 0       0      0      0.      0      0     0.00175 1.30e-4 0      
##  5 k__B 0.00722 0      0      4.60e-3 0      0     0.00414 0.      0.00103
##  6 k__B 0       0      0      0.      0      0     0       0.      0      
##  7 k__B 0       0      0      0.      0      0     0       0.      0      
##  8 k__B 0       0      0      0.      0      0     0       0.      0      
##  9 k__B 0.600   0.0528 0.0236 1.36e+1 0.362  0.755 2.32    2.12e-1 0.512  
## 10 k__B 0       0      0      3.45e-3 0      0     0       0.      0      
## #  with 250 more rows, and 25 more variables: Q4 <dbl>, H4 <dbl>,
## #   W4 <dbl>, Q5 <dbl>, H5 <dbl>, W5 <dbl>, Q6 <dbl>, H6 <dbl>, W6 <dbl>,
## #   Q7 <dbl>, H7 <dbl>, W7 <dbl>, Q8 <dbl>, H8 <dbl>, W8 <dbl>, QM <dbl>,
## #   HM <dbl>, WM <dbl>, Kingdom <chr>, Phylum <chr>, Class <chr>,
## #   Order <chr>, Family <chr>, Genus <chr>, Species <chr>
…
The Genus_unclassified catches cases where more reads were mapped to the genuss markers than could be accounted for by species within the genus. We will use these species names as taxon names,

st <- st %>%
    mutate(Clade = Species) %>%
    rename(Taxon = Clade)

and join the metadata and tidy it into a tall format (one sample-taxon observation per row)

st <- st %>%
    gather("Sample", "Abundance", sam$Sample) %>%
    left_join(sam, by = "Sample") %>%
    select(Taxon, Sample, Abundance, colnames(sam), everything())
st

## # A tibble: 7,020 x 12
##    Taxon Sample Abundance Protocol Individual Kingdom Phylum Class Order
##    <chr> <chr>      <dbl> <chr>    <chr>      <chr>   <chr>  <chr> <chr>
##  1 Meth Q1       0       Q        1          Archaea Eurya Meth Meth
##  2 Meth Q1       0       Q        1          Archaea Eurya Meth Meth
##  3 Meth Q1       0       Q        1          Archaea Eurya Meth Meth
##  4 Acti Q1       0       Q        1          Bacter Actin Acti Acti
##  5 Acti Q1       0.00722 Q        1          Bacter Actin Acti Acti
##  6 Acti Q1       0       Q        1          Bacter Actin Acti Acti
##  7 Roth Q1       0       Q        1          Bacter Actin Acti Acti
##  8 Roth Q1       0       Q        1          Bacter Actin Acti Acti
##  9 Bifi Q1       0.600   Q        1          Bacter Actin Acti Bifi
## 10 Bifi Q1       0       Q        1          Bacter Actin Acti Bifi
## #  with 7,010 more rows, and 3 more variables: Family <chr>, Genus <chr>,
## #   Species <chr>
…
st0 %>%
    filter(
        Individual == "M", Abundance > 0, 
        !(Taxon %in% mock$Taxon)
        ) %>%
    group_by(Taxon) %>%
    summarize(
        Mean = mean(Abundance),
        Max = max(Abundance),
        ) %>%
    arrange(desc(Mean)) %>%
    print(n = 10)

## # A tibble: 35 x 3
##    Taxon                             Mean       Max
##    <chr>                            <dbl>     <dbl>
##  1 Shigella_flexneri            0.0902    0.113    
##  2 Escherichia_unclassified     0.00486   0.00637  
##  3 Prevotella_copri             0.0000749 0.000125 
##  4 Bacteroides_vulgatus         0.0000509 0.0000594
##  5 Escherichia_coli             0.0000431 0.0000573
##  6 Faecalibacterium_prausnitzii 0.0000405 0.0000643
##  7 Afipia_unclassified          0.0000367 0.0000556
##  8 Roseburia_intestinalis       0.0000320 0.0000320
##  9 Eubacterium_rectale          0.0000303 0.0000672
## 10 Ruminococcus_bromii          0.0000249 0.0000509
## #  with 25 more rows
…
prev <- nat %>%
    filter(Individual != "M") %>%
    mutate_by(Sample, Proportion = close_elts(Abundance)) %>%
    group_by(Family) %>%
    summarize(Prev = sum(Proportion > 0), 
        Min = min(Proportion), 
        Median = median(Proportion), 
        Mean = mean(Proportion), 
        Max = max(Proportion))
prev %>%
    arrange(desc(Max)) %>%
    print(n=30)

## # A tibble: 38 x 6
##    Family                  Prev        Min    Median      Mean      Max
##    <chr>                  <int>      <dbl>     <dbl>     <dbl>    <dbl>
##  1 Bacteroidaceae            24 0.0344     0.205     0.220     0.511   
##  2 Ruminococcaceae           24 0.0751     0.232     0.238     0.487   
##  3 Prevotellaceae            18 0          0.0000956 0.0474    0.442   
##  4 Lachnospiraceae           24 0.0504     0.155     0.163     0.323   
##  5 Bifidobacteriaceae        24 0.000128   0.0227    0.0480    0.269   
##  6 Eubacteriaceae            24 0.0126     0.102     0.0945    0.176   
##  7 Rikenellaceae             24 0.0168     0.0440    0.0572    0.157   
##  8 Coriobacteriaceae         24 0.00153    0.0112    0.0183    0.104   
##  9 Porphyromonadaceae        24 0.00764    0.0283    0.0342    0.0873  
## 10 Acidaminococcaceae         8 0          0         0.00865   0.0798  
## 11 Veillonellaceae           24 0.00000586 0.0128    0.0224    0.0786  
## 12 Verrucomicrobiaceae       12 0          0.000150  0.0123    0.0676  
## 13 Erysipelotrichaceae       24 0.000349   0.000782  0.00513   0.0640  
## 14 Clostridiaceae            24 0.000898   0.00383   0.00587   0.0308  
## 15 Oscillospiraceae          24 0.00171    0.00499   0.00618   0.0173  
## 16 Sutterellaceae            21 0          0.00295   0.00431   0.0166  
## 17 Bacteroidales_noname      24 0.000108   0.00268   0.00408   0.0159  
## 18 Streptococcaceae          24 0.0000195  0.00179   0.00294   0.00894 
## 19 Desulfovibrionaceae       24 0.000799   0.00454   0.00459   0.00840 
## 20 Enterobacteriaceae        11 0          0         0.000601  0.00536 
## 21 Burkholderiales_noname    11 0          0         0.000733  0.00521 
## 22 Lactobacillaceae          10 0          0         0.000471  0.00429 
## 23 Peptostreptococcaceae     18 0          0.000137  0.000422  0.00380 
## 24 Pasteurellaceae           17 0          0.000120  0.000316  0.00270 
## 25 Clostridiales_noname      24 0.0000401  0.000504  0.000673  0.00263 
## 26 Campylobacteraceae         3 0          0         0.000108  0.00145 
## 27 Oxalobacteraceae           3 0          0         0.0000926 0.00143 
## 28 Leuconostocaceae           7 0          0         0.0000726 0.000833
## 29 Bradyrhizobiaceae         20 0          0.000170  0.000186  0.000581
## 30 Actinomycetaceae          14 0          0.0000152 0.0000381 0.000247
## #  with 8 more rows
…
We will further restrict to just the mock taxa,

stm <- st0 %>%
    filter(Taxon %in% mock$Taxon) %>%
    left_join(sample_min, by = "Sample") %>%
    mutate_by(Sample, Abundance = close_elts(Abundance + Min)) %>%
    select(-Min)
stm %>%
    filter(Taxon == "Blautia_hansenii") %>%
    arrange(Abundance)

## # A tibble: 27 x 13
##    Taxon Sample Abundance Protocol Individual Kingdom Phylum Class Order
##    <chr> <chr>      <dbl> <chr>    <chr>      <chr>   <chr>  <chr> <chr>
##  1 Blau H4     0.0000403 H        4          Bacter Firmi Clos Clos
##  2 Blau Q8     0.0000508 Q        8          Bacter Firmi Clos Clos
##  3 Blau Q2     0.0000610 Q        2          Bacter Firmi Clos Clos
##  4 Blau Q3     0.000104  Q        3          Bacter Firmi Clos Clos
##  5 Blau H1     0.000121  H        1          Bacter Firmi Clos Clos
##  6 Blau H2     0.000147  H        2          Bacter Firmi Clos Clos
##  7 Blau Q7     0.000215  Q        7          Bacter Firmi Clos Clos
##  8 Blau Q4     0.000232  Q        4          Bacter Firmi Clos Clos
##  9 Blau H3     0.000293  H        3          Bacter Firmi Clos Clos
## 10 Blau H8     0.000341  H        8          Bacter Firmi Clos Clos
## #  with 17 more rows, and 4 more variables: Family <chr>, Genus <chr>,
## #   Species <chr>, Source <chr>
…
